type,similar,score
愉悦,狂喜,A3
愉悦,享受,A2
愉悦,宁静,A1
愉悦,高兴,A3
愉悦,心花怒放,A3
愉悦,愉快,A3
愉悦,愉悦,A2
愉悦,快乐,A2
愉悦,喜悦,A3
愉悦,欢喜,A2
愉悦,愿意,A1
愉悦,快活,A2
愉悦,欢乐,A3
愉悦,心旷神怡,A2
愉悦,兴奋,A3
愉悦,欣悦,A2
愉悦,乐意,A2
愉悦,得意,A1
愉悦,雀跃,A2
愉悦,欢快,A3
愉悦,欢悦,A2
愉悦,欣喜,A3
愉悦,痛快,A2
愉悦,兴趣,A1
愉悦,幸福,A3
愉悦,开怀,A2
愉悦,健康,A1
愉悦,康乐,A2
愉悦,夷悦,A2
愉悦,欢腾,A3
愉悦,欢畅,A3
愉悦,夷愉,A1
愉悦,喜欢,A2
愉悦,希冀,A1
愉悦,期待,A1
愉悦,心愿,A1
愉悦,希望,A1
愉悦,乐此不疲,A2
愉悦,乐观,A1
愉悦,坚持,A1
愉悦,欢欣,A2
愉悦,平静,A1
愉悦,安静,A1
愉悦,平淡,A1
愉悦,冷静,A1
愉悦,维护,A1
愉悦,赞扬,A2
愉悦,表扬,A2
愉悦,赞美,A2
愉悦,繁荣,A2
愉悦,繁华,A2
愉悦,茂盛,A2
愉悦,焕发,A1
愉悦,亢奋,A2
愉悦,得意,A3
愉悦,兴隆,A2
愉悦,昌盛,A1
愉悦,振奋,A1
愉悦,治愈,A1
愉悦,疗愈,A1
愉悦,接受,A1
愉悦,强壮,A1
愉悦,神圣,A1
愉悦,载歌载舞,A3
愉悦,歌舞升平,A2
愉悦,手舞足蹈,A2
愉悦,振作,A1
愉悦,抖擞,A2
愉悦,激动,A3
愉悦,兴盛,A2
愉悦,可爱,A2
愉悦,擅长,A1
愉悦,安逸,A1
愉悦,安全,A1
愉悦,幸运,A2
愉悦,优美,A1
愉悦,舒畅,A3
愉悦,舒服,A2
愉悦,舒心,A1
愉悦,欢娱,A1
愉悦,雀跃,A3
愉悦,鼓舞,A1
愉悦,鼓励,A1
愉悦,欣忭,A2
愉悦,惬意,A1
愉悦,满意,A2
愉悦,如意,A1
愉悦,快意,A1
愉悦,顺心,A2
愉悦,开怀,A2
愉悦,畅饮,A2
愉悦,自由,A1
愉悦,我好了,A3
愉悦,感恩,A2
愉悦,爽快,A2
愉悦,点赞,A1
愉悦,休闲,A1
愉悦,吸引,A1
愉悦,老哥稳,A1
愉悦,满足,A2
愉悦,brilliant,A3
信任,钦佩,B3
信任,喜欢,B2
信任,接受,B1
信任,牛逼,B3
信任,卧槽,B3
信任,woc,B2
信任,nb,B2
信任,妈耶,B2
信任,强无敌,B3
信任,好强,B2
信任,屌,B3
信任,信任,B2
信任,接受,B1
信任,彩虹屁,B1
信任,酷,B1
信任,夸,B1
信任,笔芯,B1
信任,感动,B1
信任,一滴都没有了,B2
信任,卡密,B2
信任,太太,B1
信任,大佬,B1
信任,魅力,B1
信任,神仙,B2
信任,大大,B1
信任,下凡,B3
信任,螺旋升天,B3
信任,我没了,B3
信任,awsl,B2
信任,阿伟,B2
信任,棒,B1
信任,awww,B1
信任,啊啊啊,B1
信任,劳斯,B1
信任,老师,B1
信任,哭爆,B2
信任,自豪,B3
信任,优秀,B2
信任,好样的,B2
信任,值得,B2
信任,我可以,B2
信任,信任,B1
信任,接受,B1
信任,人类之光,B3
信任,之光,B3
信任,了不起,B3
信任,经典,B3
信任,辉煌,B3
信任,实至名归,B2
信任,奈斯,B2
信任,厉害,B2
信任,骄傲,B3
信任,值得,B1
信任,突出,B1
信任,荣誉,B3
信任,赞,B1
信任,偶像,B1
信任,活了,B2
信任,劲啊,B2
信任,呜呜！,B2
信任,敬重,B3
信任,敬仰,B3
信任,敬爱,B3
信任,妙,B1
信任,整挺好,B1
信任,心动,B1
信任,起立,B2
信任,鼓掌,B2
信任,太靓了,B2
信任,可爱,B1
信任,我炸了,B3
信任,我冲了！,B3
信任,羡慕,B1
信任,排面,B2
信任,赞美,B1
信任,神操作,B3
信任,高能,B3
信任,跪着看完,B3
信任,膝盖,B3
信任,先看为敬,B2
信任,骚,B1
信任,梦幻,B1
信任,我服,B2
信任,硬币,B1
信任,666,B1
信任,老哥稳,B1
信任,成精,B2
信任,教练,B3
信任,好棒,B1
信任,良心,B2
信任,窝草,B2
信任,好评,B2
信任,尊敬,B3
信任,强无敌,B3
信任,飞起,B2
信任,素质三连,B2
信任,不错,B1
信任,牛,B2
信任,神奇,B1
害怕,恐惧,C3
害怕,害怕,C2
害怕,顾虑,C1
害怕,阴森,C2
害怕,发霉,C1
害怕,铸钟姑娘,C1
害怕,焦虑,C1
害怕,恐怖,C1
害怕,量子,C2
害怕,诡异,C2
害怕,老奶奶,C3
害怕,黑暗,C2
害怕,凶残,C1
害怕,枪击,C1
害怕,福寿岭,C2
害怕,神秘,C1
害怕,哭泣,C2
害怕,幽怨,C2
害怕,鬼屋,C2
害怕,杀人,C2
害怕,案件,C3
害怕,颤抖,C2
害怕,发抖,C2
害怕,冷汗,C3
害怕,发凉,C3
害怕,DDL,C3
害怕,来不及,C3
害怕,迟到,C3
害怕,扣钱,C3
害怕,震惊,C2
害怕,鬼故事,C2
害怕,封闭空间,C1
害怕,酷刑,C1
害怕,非典,C1
害怕,伏地魔,C1
害怕,公主坟,C2
害怕,事变,C2
害怕,入侵,C1
害怕,吓人,C1
害怕,可怕,C2
害怕,都市传说,C2
害怕,鬼影墙,C3
害怕,81号,C2
害怕,瞑目,C2
害怕,鬼楼,C2
害怕,冤魂,C2
害怕,广东会馆,C2
害怕,小石虎,C1
害怕,之迷,C3
害怕,末班车,C3
害怕,乱葬岗,C2
害怕,闹鬼,C2
害怕,风水,C2
害怕,大火,C2
害怕,303,C3
害怕,古墓,C2
害怕,375,C3
害怕,神兽,C2
害怕,西直门桥,C2
害怕,死亡,C2
害怕,离奇,C2
害怕,灵异,C2
害怕,凶宅,C2
害怕,刑场,C2
害怕,禁地,C3
害怕,不为人知,C2
害怕,僵尸,C2
害怕,格格,C2
害怕,海眼,C1
害怕,魅影,C1
害怕,新冠,C1
害怕,新增,C3
害怕,SARS,C1
害怕,疫情,C2
害怕,密室,C1
害怕,咒怨,C1
害怕,细思极恐,C3
害怕,阴气,C2
害怕,弹幕护体,C1
害怕,快撤,C2
害怕,恐怖谷,C1
害怕,大悲咒,C2
害怕,天地正气,C1
害怕,林正英,C1
害怕,菩萨,C1
害怕,大威天龙,C1
害怕,护体,C1
害怕,退散,C1
害怕,厄运,C1
害怕,金光护体,C1
害怕,恶灵退散,C1
害怕,附身,C1
害怕,灵魂,C1
害怕,紧张,C1
害怕,案发地点,C1
害怕,莫名其妙,C1
害怕,未知,C1
害怕,被偷,C3
惊讶,震惊,D3
惊讶,意外,D2
惊讶,分心,D1
惊讶,惊慌,D3
惊讶,害怕,D3
惊讶,惊骇,D3
惊讶,畏惧,D3
惊讶,恐慌,D3
惊讶,愣住,D2
惊讶,心惊胆战,D3
惊讶,张皇失措,D2
惊讶,惊慌失措,D2
惊讶,心有余悸,D2
惊讶,惊恐,D3
惊讶,失魂落魄,D2
惊讶,战战兢兢,D2
惊讶,心惊肉跳,D2
惊讶,胆战心惊,D2
惊讶,不寒而栗,D3
惊讶,吓一跳,D2
惊讶,天呐,D2
惊讶,一脸惊恐,D2
惊讶,天啊,D2
惊讶,妈呀,D2
惊讶,一脸懵逼,D1
惊讶,惊呆了,D2
惊讶,哎呀,D1
惊讶,惊悚,D3
惊讶,惊人,D3
惊讶,吃惊,D2
惊讶,大吃一惊,D3
惊讶,惊为天人,D3
惊讶,惊恐万分,D3
惊讶,懵了,D2
惊讶,吃鲸,D2
惊讶,奇怪,D1
惊讶,奇奇怪怪,D1
惊讶,惊异,D2
惊讶,诧异,D2
惊讶,受惊,D1
惊讶,担心,D1
惊讶,哇,D1
惊讶,哇塞,D1
惊讶,艾玛,D1
惊讶,哇哦,D1
惊讶,花容失色,D1
惊讶,目瞪口呆,D2
惊讶,危言耸听,D3
惊讶,瞠目结舌,D3
惊讶,瞪眼,D2
惊讶,失色,D2
惊讶,苍白,D2
惊讶,怪异,D1
惊讶,怪事,D1
惊讶,心慌,D1
惊讶,哗然,D2
惊讶,惊魂,D2
惊讶,！！！,D2
惊讶,ヽ(ˋДˊ)ノ,D2
惊讶,?°(°ˊДˋ°) °,D2
惊讶,⊙_⊙,D1
惊讶,?∑( ° △ °|||),D1
惊讶,( △ |||)?,D1
惊讶,(｀?д?′),D1
惊讶,(?⊿?)?,D1
惊讶,=????=????(●???● |||),D1
惊讶,woc,D3
惊讶,szd,D3
惊讶,ヾ(≧O≦)〃嗷~,D1
惊讶,惊奇,D3
惊讶,古怪,D1
惊讶,好奇,D1
惊讶,变化大,D2
惊讶,我的妈,D3
惊讶,我的天,D3
惊讶,神奇,D2
惊讶,不料,D2
惊讶,意料之外,D2
惊讶,出其不意,D2
惊讶,不出所料,D1
惊讶,出人意料,D2
惊讶,出乎意料,D2
惊讶,始料不及,D2
惊讶,奇异,D2
惊讶,纳闷,D2
惊讶,新奇,D2
惊讶,迷惑,D2
惊讶,疑问,D2
惊讶,猎奇,D2
惊讶,？,D1
惊讶,不解,D2
惊讶,分神,D1
惊讶,啊?,D2
惊讶,嗯？,D2
惊讶,哇塞,D3
惊讶,哇塞,D2
惊讶,错愕,D2
惊讶,惶恐,D2
悲伤,悲痛,E3
悲伤,伤心,E2
悲伤,沉思,E1
悲伤,悲哀,E3
悲伤,悲伤,E2
悲伤,悲恸,E3
悲伤,沉痛,E3
悲伤,泣不成声,E3
悲伤,吞声忍泪,E3
悲伤,悲不自胜,E3
悲伤,悲痛欲绝,E3
悲伤,痛哭流涕,E3
悲伤,撕心裂肺,E3
悲伤,呼天抢地,E3
悲伤,黯然销魂,E3
悲伤,呕心抽肠,E3
悲伤,人琴俱亡,E3
悲伤,情凄意切,E3
悲伤,凄入肝脾,E3
悲伤,哀毁骨立,E3
悲伤,兔死狐悲,E3
悲伤,摧心剖肝,E3
悲伤,狐兔之悲,E3
悲伤,悲观,E3
悲伤,哀叹,E2
悲伤,悲悯,E2
悲伤,哀愁,E3
悲伤,愁苦,E2
悲伤,哀痛,E3
悲伤,哀思,E2
悲伤,难过,E2
悲伤,哎,E2
悲伤,怅然,E1
悲伤,心如刀割,E3
悲伤,忧虑,E2
悲伤,焦虑,E2
悲伤,忧愁,E2
悲伤,郁闷,E2
悲伤,心事重重,E2
悲伤,坐立不安,E2
悲伤,惴惴不安,E2
悲伤,心烦意乱,E2
悲伤,心神不定,E2
悲伤,心急如焚,E2
悲伤,愁眉苦脸,E2
悲伤,皱眉,E2
悲伤,愤慨,E2
悲伤,愤恨,E3
悲伤,令人发指,E3
悲伤,深仇大恨,E3
悲伤,提心吊胆,E2
悲伤,心有余悸,E2
悲伤,痛苦,E3
悲伤,蓝瘦,E2
悲伤,香菇,E2
悲伤,想哭,E2
悲伤,难受,E2
悲伤,心情不好,E2
悲伤,想哭,E3
悲伤,sad,E2
悲伤,呜呜呜呜,E1
悲伤,阴霾,E2
悲伤,蓝色,E2
悲伤,悲伤蛙,E1
悲伤,555,E1
悲伤,糟糕,E2
悲伤,depressed,E2
悲伤,grieve,E2
悲伤,unhappy,E2
悲伤,不幸,E2
悲伤,unfortunately,E2
悲伤,低落,E2
悲伤,低沉,E2
悲伤,消极,E2
悲伤,抑郁,E3
悲伤,堵得慌,E3
悲伤,黯然失色,E2
悲伤,流泪,E3
悲伤,失望,E2
悲伤,绝望,E3
悲伤,心碎,E3
悲伤,gloomy,E3
悲伤,糟透了,E3
悲伤,( 〒_〒,E1
悲伤,π_π,E1
悲伤,(>﹏<),E1
悲伤,宽面条,E1
悲伤,//(ㄒoㄒ)//,E1
悲伤,>_<,E1
悲伤,呜哇,E1
悲伤,颓废,E2
悲伤,颓唐,E2
悲伤,丧,E2
悲伤,降低,E1
悲伤,气馁,E2
悲伤,乌压压,E1
悲伤,阴暗,E2
悲伤,沉重,E3
悲伤,灰心,E2
悲伤,扫兴,E2
悲伤,ε=(?ο｀*)))唉,E1
悲伤,叹气,E1
悲伤,1551,E2
厌恶,厌恶,F3
厌恶,讨厌,F2
厌恶,无聊,F1
厌恶,憎恶,F3
厌恶,愤恨,F3
厌恶,怨恨,F3
厌恶,痛恨,F3
厌恶,遗恨,F3
厌恶,憎恨,F2
厌恶,怀恨,F2
厌恶,深恶痛绝,F3
厌恶,恶心,F2
厌恶,恨之入骨,F3
厌恶,厌倦,F1
厌恶,厌烦,F2
厌恶,反感,F1
厌恶,闭嘴,F1
厌恶,嫌恶,F2
厌恶,腻烦,F1
厌恶,恨恶,F3
厌恶,烦闷,F1
厌恶,嫌弃,F2
厌恶,烦人,F1
厌恶,倦怠,F1
厌恶,不喜欢,F1
厌恶,抵触,F2
厌恶,拒绝,F1
厌恶,惹人嫌,F2
厌恶,讨人厌,F2
厌恶,看不惯,F1
厌恶,好烦,F3
厌恶,烦死了,F3
厌恶,可恶,F2
厌恶,滚出,F2
厌恶,哪来的,F2
厌恶,下一个,F1
厌恶,fuck,F3
厌恶,智障,F3
厌恶,傻逼,F3
厌恶,傻子,F3
厌恶,笨蛋,F3
厌恶,无聊,F1
厌恶,boring,F1
厌恶,沙雕,F1
厌恶,服了,F1
厌恶,佛了,F1
厌恶,滚吧,F3
厌恶,智障,F3
厌恶,弱智,F3
厌恶,毫无营养,F2
厌恶,辱骂,F3
厌恶,骂人,F2
厌恶,对线,F1
厌恶,对骂,F2
厌恶,互骂,F2
厌恶,攻击,F1
厌恶,恶毒,F1
厌恶,妈的,F2
厌恶,zz,F3
厌恶,sb,F3
厌恶,窒息,F1
厌恶,无语,F1
厌恶,烦了,F2
厌恶,吃屎,F3
厌恶,狠毒,F2
厌恶,bitch,F3
厌恶,idiot,F3
厌恶,迷惑,F1
厌恶,沙雕,F1
厌恶,不理解,F1
厌恶,不明白,F1
厌恶,蠢,F2
厌恶,放屁,F2
厌恶,服气,F1
厌恶,无话可说,F1
厌恶,无趣,F1
厌恶,欺骗,F2
厌恶,骗人,F2
厌恶,假,F2
厌恶,空泛,F2
厌恶,虚伪,F2
厌恶,罪恶,F2
厌恶,卑鄙,F2
厌恶,奸诈,F2
厌恶,贬斥,F2
厌恶,轻蔑,F2
厌恶,否定,F2
厌恶,罪恶,F2
厌恶,话多,F1
厌恶,恐怖,F1
厌恶,焦躁,F1
厌恶,焦虑,F1
厌恶,排斥,F1
厌恶,不接受,F1
厌恶,捣乱,F1
厌恶,破坏,F2
厌恶,毁坏,F3
厌恶,打击,F2
厌恶,攻击,F2
厌恶,不相容,F1
生气,不满,G1
生气,发火,G2
生气,气愤,G3
生气,焦躁,G2
生气,愤懑,G3
生气,动怒,G2
生气,生气,G3
生气,愤怒,G3
生气,发怒,G2
生气,怄气,G2
生气,烦躁,G1
生气,赌气,G1
生气,怒发冲冠,G3
生气,愤愤不平,G2
生气,吹胡子瞪眼,G3
生气,咬牙切齿,G3
生气,勃然大怒,G3
生气,雷霆之怒,G3
生气,恼羞成怒,G3
生气,怒气冲天,G3
生气,直眉怒目,G3
生气,怒火冲天,G3
生气,恼恨,G3
生气,发恼,G2
生气,恼火,G2
生气,怒吼,G3
生气,怒号,G3
生气,咆哮,G3
生气,气死,G3
生气,讨厌,G1
生气,怨恨,G2
生气,怨言,G1
生气,愤慨,G3
生气,大怒,G3
生气,震怒,G3
生气,?憎恶,G2
生气,怒气,G2
生气,瞪眼,G1
生气,怒色,G1
生气,怒火,G2
生气,怒斥,G2
生气,怒骂,G3
生气,怒视,G2
生气,怒容,G2
生气,激怒,G2
生气,愤然,G3
生气,义愤,G2
生气,愤恨,G3
生气,气恼,G3
生气,火气,G2
生气,火冒三丈,G3
生气,怒气冲冲,G3
生气,勃然变色,G3
生气,怒不可遏,G3
生气,气势汹汹,G3
生气,义愤填膺,G2
生气,暴跳如雷,G3
生气,气急败坏,G3
生气,怒目圆睁,G2
生气,怒目而视,G2
生气,卧槽,G2
生气,靠,G2
生气,去你大爷,G3
生气,你大爷的,G3
生气,我操,G3
生气,md,G2
生气,nmsl,G3
生气,mdzz,G3
生气,闭嘴,G1
生气,烦闷,G1
生气,郁闷,G1
生气,笨死了,G2
生气,蠢死了,G2
生气,你傻吗,G2
生气,傻逼,G3
生气,笨蛋,G3
生气,沙雕,G1
生气,服了,G1
生气,佛了,G1
生气,滚吧,G2
生气,智障,G2
生气,弱智,G2
生气,毫无营养,G1
生气,妈的,G3
生气,丢雷老母,G3
生气,fuck,G3
生气,fine,G1
生气,吃屎,G3
生气,bitch,G3
生气,idiot,G3
生气,sb,G3
生气,zz,G3
生气,淦,G3
生气,草,G2
生气,炸了,G3
生气,辱骂,G2
生气,骂人,G2
生气,对线,G1
生气,对骂,G2
生气,互骂,G2
期待,期盼,H2
期待,期待,H2
期待,关注,H1
期待,期望,H2
期待,希望,H2
期待,羡慕,H2
期待,祝福,H2
期待,欣喜,H2
期待,渴望,H3
期待,期盼,H2
期待,期许,H2
期待,发现,H1
期待,察觉,H1
期待,发掘,H2
期待,发觉,H1
期待,注意,H1
期待,惊喜,H3
期待,期待已久,H3
期待,憧憬,H3
期待,等待,H1
期待,提防,H2
期待,小心,H1
期待,祝福,H3
期待,羡慕,H2
期待,震撼,H3
期待,担心,H2
期待,担忧,H2
期待,守护,H3
期待,憧憬,H2
期待,翘首期盼,H3
期待,敏感,H3
期待,敏锐,H2
期待,注目,H1
期待,带给,H1
期待,预告,H2
期待,预测,H2
期待,预言,H1
期待,留心,H1
期待,企盼,H2
期待,祝愿,H2
期待,关心,H1
期待,留意,H1
期待,监视,H3
期待,监控,H3
期待,跟踪,H2
期待,感兴趣,H1
期待,追星,H2
期待,颇感兴趣,H2
期待,投票,H3
期待,偷瞄,H1
期待,偷偷摸摸,H1
期待,蹑手蹑脚,H1
期待,不露声色,H1
期待,很感兴趣,H2
期待,留一手,H2
期待,隐藏,H2
期待,保留实力,H2
期待,风声鹤唳,H3
期待,达成,H3
期待,未雨绸缪,H2
期待,晨钟暮鼓,H2
期待,烽火台,H1
期待,狼烟四起,H3
期待,擦亮眼,H2
期待,告诫,H2
期待,通知,H1
期待,通报,H2
期待,实现,H3
期待,如履薄冰,H2
期待,旁敲侧击,H1
期待,心怀鬼胎,H2
期待,热切,H3
期待,仰视,H3
期待,严阵以待,H3
期待,？？？,H3
期待,风吹草动,H1
期待,枕戈待旦,H3
期待,殷切,H2
期待,严防死守,H3
期待,不苟言笑,H1
期待,鞍不离马,H2
期待,小心翼翼,H2
期待,多疑,H1
期待,祈望,H3
期待,不负厚望,H3
期待,同心协力,H2
期待,一心一意,H3
期待,专心,H3
期待,合作,H2
期待,老铁,H2
期待,彩票,H2
期待,许愿,H2
期待,惊动,H1
期待,等待,H2
期待,关切,H2
期待,重视,H2
期待,体贴,H3
期待,注视,H3
期待,认同,H2
期待,有备无患,H3